APB/out_apb.vcd
$date
	Thu Mar 12 13:56:28 2026
$end
$version
	Icarus Verilog
$end
$timescale
	1s
$end
$scope module tb_apb $end
$var wire 32 ! apb_rout [31:0] $end
$var parameter 32 " d_width $end
$var parameter 32 # depth $end
$var parameter 32 $ slave $end
$var reg 5 % apb_addr [4:0] $end
$var reg 32 & apb_pwdata [31:0] $end
$var reg 2 ' apb_saddr [1:0] $end
$var reg 1 ( apb_wr $end
$var reg 1 ) pclk $end
$var reg 1 * prst $end
$var reg 1 + transfer $end
$scope module uut $end
$var wire 5 , apb_addr [4:0] $end
$var wire 32 - apb_pwdata [31:0] $end
$var wire 2 . apb_saddr [1:0] $end
$var wire 1 ( apb_wr $end
$var wire 1 ) pclk $end
$var wire 1 * prst $end
$var wire 1 + transfer $end
$var wire 2 / s_addr [1:0] $end
$var wire 1 0 pwrite $end
$var wire 32 1 pw_data [31:0] $end
$var wire 1 2 psel4 $end
$var wire 1 3 psel3 $end
$var wire 1 4 psel2 $end
$var wire 1 5 psel1 $end
$var wire 1 6 psel $end
$var wire 1 7 pready4 $end
$var wire 1 8 pready3 $end
$var wire 1 9 pready2 $end
$var wire 1 : pready1 $end
$var wire 1 ; pready $end
$var wire 32 < pr_data4 [31:0] $end
$var wire 32 = pr_data3 [31:0] $end
$var wire 32 > pr_data2 [31:0] $end
$var wire 32 ? pr_data1 [31:0] $end
$var wire 32 @ pr_data [31:0] $end
$var wire 1 A penable $end
$var wire 5 B paddr [4:0] $end
$var wire 32 C apb_rout [31:0] $end
$var parameter 32 D d_width $end
$var parameter 32 E depth $end
$var parameter 32 F slave $end
$scope module d $end
$var wire 2 G s_addr [1:0] $end
$var wire 1 6 psel $end
$var parameter 32 H slave $end
$var reg 1 5 psel1 $end
$var reg 1 4 psel2 $end
$var reg 1 3 psel3 $end
$var reg 1 2 psel4 $end
$upscope $end
$scope module m $end
$var wire 5 I apb_addr [4:0] $end
$var wire 32 J apb_pwdata [31:0] $end
$var wire 2 K apb_saddr [1:0] $end
$var wire 1 ( apb_wr $end
$var wire 1 ) pclk $end
$var wire 32 L pr_data [31:0] $end
$var wire 1 ; pready $end
$var wire 1 * prst $end
$var wire 1 + transfer $end
$var wire 32 M apb_rout [31:0] $end
$var parameter 2 N access $end
$var parameter 32 O d_width $end
$var parameter 32 P depth $end
$var parameter 2 Q idle $end
$var parameter 2 R setup $end
$var parameter 32 S slave $end
$var reg 2 T next_state [1:0] $end
$var reg 5 U paddr [4:0] $end
$var reg 1 A penable $end
$var reg 1 6 psel $end
$var reg 32 V pw_data [31:0] $end
$var reg 1 0 pwrite $end
$var reg 2 W s_addr [1:0] $end
$var reg 2 X state [1:0] $end
$upscope $end
$scope module s1 $end
$var wire 5 Y paddr [4:0] $end
$var wire 1 ) pclk $end
$var wire 1 A penable $end
$var wire 1 * prst $end
$var wire 1 5 psel $end
$var wire 32 Z pw_data [31:0] $end
$var wire 1 0 pwrite $end
$var parameter 32 [ d_width $end
$var parameter 32 \ depth $end
$var reg 32 ] pr_data [31:0] $end
$var reg 1 : pready $end
$upscope $end
$scope module s2 $end
$var wire 5 ^ paddr [4:0] $end
$var wire 1 ) pclk $end
$var wire 1 A penable $end
$var wire 1 * prst $end
$var wire 1 4 psel $end
$var wire 32 _ pw_data [31:0] $end
$var wire 1 0 pwrite $end
$var parameter 32 ` d_width $end
$var parameter 32 a depth $end
$var reg 32 b pr_data [31:0] $end
$var reg 1 9 pready $end
$upscope $end
$scope module s3 $end
$var wire 5 c paddr [4:0] $end
$var wire 1 ) pclk $end
$var wire 1 A penable $end
$var wire 1 * prst $end
$var wire 1 3 psel $end
$var wire 32 d pw_data [31:0] $end
$var wire 1 0 pwrite $end
$var parameter 32 e d_width $end
$var parameter 32 f depth $end
$var reg 32 g pr_data [31:0] $end
$var reg 1 8 pready $end
$upscope $end
$scope module s4 $end
$var wire 5 h paddr [4:0] $end
$var wire 1 ) pclk $end
$var wire 1 A penable $end
$var wire 1 * prst $end
$var wire 1 2 psel $end
$var wire 32 i pw_data [31:0] $end
$var wire 1 0 pwrite $end
$var parameter 32 j d_width $end
$var parameter 32 k depth $end
$var reg 32 l pr_data [31:0] $end
$var reg 1 7 pready $end
$upscope $end
$upscope $end
$upscope $end
$enddefinitions $end
$comment Show the parameter values. $end
$dumpall
b100000 k
b100000 j
b100000 f
b100000 e
b100000 a
b100000 `
b100000 \
b100000 [
b100 S
b1 R
b0 Q
b100000 P
b100000 O
b10 N
b100 H
b100 F
b100000 E
b100000 D
b100 $
b100000 #
b100000 "
$end
#0
$dumpvars
b0 l
bx i
bx h
b0 g
bx d
bx c
b0 b
bx _
bx ^
b0 ]
bx Z
bx Y
b0 X
bx W
bx V
bx U
b0 T
b0 M
b0 L
b0 K
b1010 J
b0 I
bx G
b0 C
bx B
0A
b0 @
b0 ?
b0 >
b0 =
b0 <
0;
0:
09
08
07
x6
x5
x4
x3
x2
bx 1
x0
bx /
b0 .
b1010 -
b0 ,
0+
0*
0)
0(
b0 '
b1010 &
b0 %
b0 !
$end
#5
1)
#10
b1 T
1+
1*
0)
#15
b10 T
1;
02
03
04
15
b1 X
b0 /
b0 G
b0 W
00
b1010 1
b1010 V
b1010 Z
b1010 _
b1010 d
b1010 i
b0 B
b0 U
b0 Y
b0 ^
b0 c
b0 h
16
1:
19
18
17
1)
#20
0)
b100 %
b100 ,
b100 I
1(
#25
b1 T
1A
b10 X
1)
#30
0)
b1 '
b1 .
b1 K
#35
b10 T
b0 @
b0 L
14
05
b1 X
b1 /
b1 G
b1 W
10
b100 B
b100 U
b100 Y
b100 ^
b100 c
b100 h
0A
bx ?
bx ]
1)
#40
0)
b11110 &
b11110 -
b11110 J
#45
b1 T
1A
b10 X
1)
#50
0)
#55
b10 T
b1 X
b11110 1
b11110 V
b11110 Z
b11110 _
b11110 d
b11110 i
0A
1)
#60
0)
0(
#65
b1 T
1A
b10 X
1)
#70
0)
#75
b10 T
b1 X
00
0A
1)
#80
0)
#85
b1 T
1A
b10 X
1)
#90
0)
#95
b10 T
b11110 !
b11110 C
b11110 M
b11110 @
b11110 L
b1 X
0A
b11110 >
b11110 b
1)
#100
0)
#105
b1 T
1A
b10 X
1)
#110
0)
#115
b10 T
b1 X
0A
1)
#120
0)
#125
b1 T
1A
b10 X
1)
#130
0)
#135
b10 T
b1 X
0A
1)
#140
0)
#145
b1 T
1A
b10 X
1)
#150
0)
#155
b10 T
b1 X
0A
1)
